…
4)  Visualiza las notas ordenadas de mayor a menor

<!-- end list -->

``` r
tibble(grupo,nota) %>%                   #Unimos "Grupo" y "Nota"
  arrange(nota) %>%                     #Ordenamos de mmenor a mayor NOTAS
  mutate(Orden = 1:n())                 #Agregamos posicion
```

    ## # A tibble: 192 x 3
    ##    grupo  nota Orden
    ##    <chr> <dbl> <int>
    ##  1 B       1.7     1
    ##  2 D       2.5     2
    ##  3 D       2.6     3
    ##  4 E       2.7     4
    ##  5 E       2.9     5
    ##  6 D       2.9     6
    ##  7 A       2.9     7
    ##  8 E       3       8
    ##  9 E       3.1     9
    ## 10 C       3.2    10
    ## # ... with 182 more rows
…
    ## # A tibble: 1 x 1
    ##   `median(conc)`
    ##            <dbl>
    ## 1           24.4

4)  ¿Cuáles fueron las 10 mediciones más bajas del día?

<!-- end list -->

``` r
tibble(conc) %>%                   #Unimos "Grupo" y "Nota"
  arrange(conc)
```

    ## # A tibble: 288 x 1
    ##     conc
    ##    <dbl>
    ##  1  0.93
    ##  2  1.07
    ##  3  1.77
    ##  4  2.03
    ##  5  2.58
    ##  6  2.73
    ##  7  2.75
    ##  8  2.88
    ##  9  2.88
    ## 10  2.91
    ## # ... with 278 more rows
…
``` r
estacion<- tibble(ppDay) %>% 
  select(date, qc00000132) %>%   #Seleccionamos "date" y "Estacion por el codigo"
  mutate(date = as.Date(date, format = "%d/%m/%Y")) %>% #Cambiamos el formato de fecha
  rename(Fecha = date, pp = qc00000132)  #Renombramos
```

``` r
#Seleccionamosla estacion, cambio de nombres (Estacion, Date)
tibble(estacion)
```

    ## # A tibble: 12,419 x 2
    ##    Fecha         pp
    ##    <date>     <dbl>
    ##  1 1980-01-01   0  
    ##  2 1980-01-02   0  
    ##  3 1980-01-03   0  
    ##  4 1980-01-04   0.8
    ##  5 1980-01-05   0  
    ##  6 1980-01-06   0  
    ##  7 1980-01-07   0  
    ##  8 1980-01-08   0  
    ##  9 1980-01-09   0  
    ## 10 1980-01-10   0  
    ## # ... with 12,409 more rows
…
    missVal = sum(is.na(pp))*100/n()    #porcentaje de DATOS faltantes
  ) %>% 
  summarise(
    pp = sum(pp, na.rm = T),
    missVal = unique(missVal)          #Precipitacion acumulada
  ) %>% 
  mutate(
    pp = ifelse(missVal>=10,NA,pp),    #NA, cuando superan o son mayor a 10%
    Fecha = as.Date(sprintf("%1$s-01", Fecha)),
    Mes = str_sub(Fecha, 6, 7)
  )
ppMPizarro
```

    ## # A tibble: 408 x 4
    ##    Fecha         pp missVal Mes  
    ##    <date>     <dbl>   <dbl> <chr>
    ##  1 1980-01-01   6.9    0    01   
    ##  2 1980-02-01   4.6    0    02   
    ##  3 1980-03-01  39.3    0    03   
    ##  4 1980-04-01  87.3    0    04   
    ##  5 1980-05-01   0      3.23 05   
    ##  6 1980-06-01   0.3    0    06   
    ##  7 1980-07-01   0.5    0    07   
    ##  8 1980-08-01   0.6    0    08   
    ##  9 1980-09-01   0      0    09   
    ## 10 1980-10-01   4.7    0    10   
    ## # ... with 398 more rows
…
``` r
#view(ppM80_10)
```

5)  Poltear (boxplot) la variabilidad de los valores mensuales (Ene-Dic)
    para el período 1980-2013.

<!-- end list -->

``` r
ppMPizarro
```

    ## # A tibble: 408 x 4
    ##    Fecha         pp missVal Mes  
    ##    <date>     <dbl>   <dbl> <chr>
    ##  1 1980-01-01   6.9    0    01   
    ##  2 1980-02-01   4.6    0    02   
    ##  3 1980-03-01  39.3    0    03   
    ##  4 1980-04-01  87.3    0    04   
    ##  5 1980-05-01   0      3.23 05   
    ##  6 1980-06-01   0.3    0    06   
    ##  7 1980-07-01   0.5    0    07   
    ##  8 1980-08-01   0.6    0    08   
    ##  9 1980-09-01   0      0    09   
    ## 10 1980-10-01   4.7    0    10   
    ## # ... with 398 more rows
…
