…
    ## # A tibble: 1 x 1
    ##   CODIGO    
    ##   <chr>     
    ## 1 qc00000132

``` r
#Seleccionamosla estacion, cambio de nombres (Estacion, Date)
tibble(estacion)
```

    ## # A tibble: 12,419 x 2
    ##    Fecha         pp
    ##    <date>     <dbl>
    ##  1 1980-01-01   0  
    ##  2 1980-01-02   0  
    ##  3 1980-01-03   0  
    ##  4 1980-01-04   0.8
    ##  5 1980-01-05   0  
    ##  6 1980-01-06   0  
    ##  7 1980-01-07   0  
    ##  8 1980-01-08   0  
    ##  9 1980-01-09   0  
    ## 10 1980-01-10   0  
    ## # ... with 12,409 more rows
…
``` r
#summarise_all(ppDay, funs(sum(is.na(.)))) #Cantidad NA por cada columna
sum(summarise_all(estacion, funs(sum(is.na(.)))))  #Total de "NA" en la estacion "Puerto Pizarro"
```

    ## [1] 329

2)  Calcule la serie de tiempo de precipitación **acumulada mensual**
    (si el \# de días con missing values, en un mes, supera el 10%, la
    precipitación acumulada mensual será considerado como un **`NA`**).

<!-- end list -->

    ## # A tibble: 408 x 4
    ##    Fecha         pp missVal Mes  
    ##    <date>     <dbl>   <dbl> <chr>
    ##  1 1980-01-01   6.9    0    01   
    ##  2 1980-02-01   4.6    0    02   
    ##  3 1980-03-01  39.3    0    03   
    ##  4 1980-04-01  87.3    0    04   
    ##  5 1980-05-01   0      3.23 05   
    ##  6 1980-06-01   0.3    0    06   
    ##  7 1980-07-01   0.5    0    07   
    ##  8 1980-08-01   0.6    0    08   
    ##  9 1980-09-01   0      0    09   
    ## 10 1980-10-01   4.7    0    10   
    ## # ... with 398 more rows
…
<!-- end list -->

    ## # A tibble: 408 x 4
    ##    Fecha         pp missVal Mes  
    ##    <date>     <dbl>   <dbl> <chr>
    ##  1 1980-01-01   6.9    0    01   
    ##  2 1980-02-01   4.6    0    02   
    ##  3 1980-03-01  39.3    0    03   
    ##  4 1980-04-01  87.3    0    04   
    ##  5 1980-05-01   0      3.23 05   
    ##  6 1980-06-01   0.3    0    06   
    ##  7 1980-07-01   0.5    0    07   
    ##  8 1980-08-01   0.6    0    08   
    ##  9 1980-09-01   0      0    09   
    ## 10 1980-10-01   4.7    0    10   
    ## # ... with 398 more rows
…
